\relax 
\providecommand\hyper@newdestlabel[2]{}
\providecommand\HyperFirstAtBeginDocument{\AtBeginDocument}
\HyperFirstAtBeginDocument{\ifx\hyper@anchor\@undefined
\global\let\oldcontentsline\contentsline
\gdef\contentsline#1#2#3#4{\oldcontentsline{#1}{#2}{#3}}
\global\let\oldnewlabel\newlabel
\gdef\newlabel#1#2{\newlabelxx{#1}#2}
\gdef\newlabelxx#1#2#3#4#5#6{\oldnewlabel{#1}{{#2}{#3}}}
\AtEndDocument{\ifx\hyper@anchor\@undefined
\let\contentsline\oldcontentsline
\let\newlabel\oldnewlabel
\fi}
\fi}
\global\let\hyper@last\relax 
\gdef\HyperFirstAtBeginDocument#1{#1}
\providecommand\HyField@AuxAddToFields[1]{}
\providecommand\HyField@AuxAddToCoFields[2]{}
\select@language{italian}
\@writefile{toc}{\select@language{italian}}
\@writefile{lof}{\select@language{italian}}
\@writefile{lot}{\select@language{italian}}
\select@language{italian}
\@writefile{toc}{\select@language{italian}}
\@writefile{lof}{\select@language{italian}}
\@writefile{lot}{\select@language{italian}}
\citation{bertino2017botnets}
\citation{impervareport}
\citation{akamaireport}
\@writefile{toc}{\contentsline {chapter}{\numberline {1}Introduzione}{1}{chapter.1}}
\@writefile{lof}{\addvspace {10\p@ }}
\@writefile{lot}{\addvspace {10\p@ }}
\@writefile{toc}{\contentsline {paragraph}{Obiettivi della tesi}{2}{section*.5}}
\citation{SEC:SEC1737}
\@writefile{toc}{\contentsline {chapter}{\numberline {2}Software-Defined Network}{3}{chapter.2}}
\@writefile{lof}{\addvspace {10\p@ }}
\@writefile{lot}{\addvspace {10\p@ }}
\newlabel{Capitolo Software-Defined Network}{{2}{3}{Software-Defined Network}{chapter.2}{}}
\citation{DBLP:journals/corr/AdrichemIK16}
\@writefile{lof}{\contentsline {figure}{\numberline {2.1}{\ignorespaces Architettura di una Software-Defined Network}}{4}{figure.2.1}}
\newlabel{Architettura SDN}{{2.1}{4}{Architettura di una Software-Defined Network}{figure.2.1}{}}
\citation{wiki:nfv}
\citation{attsdn}
\citation{telecomsdn}
\citation{amazonsdn}
\@writefile{toc}{\contentsline {section}{\numberline {2.1}Controller}{7}{section.2.1}}
\@writefile{lof}{\contentsline {figure}{\numberline {2.2}{\ignorespaces Architettura di rete legacy vs SDN}}{7}{figure.2.2}}
\newlabel{fig:differenzeReteTradSdnOK}{{2.2}{7}{Architettura di rete legacy vs SDN}{figure.2.2}{}}
\citation{ciscoswitch}
\citation{necswitch}
\citation{hpeswitch}
\gdef \LT@i {\LT@entry 
    {1}{224.38585pt}\LT@entry 
    {1}{182.71652pt}\LT@entry 
    {1}{0.0pt}\LT@entry 
    {1}{0.0pt}}
\@writefile{lot}{\contentsline {table}{\numberline {2.1}{Switch fisici}}{8}{table.2.1}}
\newlabel{table:switchfisici}{{2.1}{8}{Controller}{table.2.1}{}}
\@writefile{toc}{\contentsline {section}{\numberline {2.2}Application Plane}{8}{section.2.2}}
\@writefile{toc}{\contentsline {section}{\numberline {2.3}Control Plane}{8}{section.2.3}}
\citation{wiki:asic}
\citation{wiki:fpga}
\@writefile{toc}{\contentsline {section}{\numberline {2.4}Data Plane}{9}{section.2.4}}
\@writefile{toc}{\contentsline {section}{\numberline {2.5}Northbound API}{10}{section.2.5}}
\citation{tijareinternational}
\citation{openflowspecifications}
\@writefile{toc}{\contentsline {section}{\numberline {2.6}Southbound API}{11}{section.2.6}}
\@writefile{toc}{\contentsline {subsection}{\numberline {2.6.1}OpenFlow}{11}{subsection.2.6.1}}
\citation{openflowspecifications}
\@writefile{toc}{\contentsline {subsubsection}{Forwarding table}{12}{section*.6}}
\@writefile{lof}{\contentsline {figure}{\numberline {2.3}{\ignorespaces Flow table di uno switch OpenFlow}}{13}{figure.2.3}}
\newlabel{Flow table di uno switch OpenFlow}{{2.3}{13}{Flow table di uno switch OpenFlow}{figure.2.3}{}}
\@writefile{toc}{\contentsline {subsubsection}{Messaggistica}{13}{section*.7}}
\@writefile{lof}{\contentsline {figure}{\numberline {2.4}{\ignorespaces Diagramma di flusso dell'elaborazione dei pacchetti}}{14}{figure.2.4}}
\newlabel{fig:flowChart}{{2.4}{14}{Diagramma di flusso dell'elaborazione dei pacchetti}{figure.2.4}{}}
\@writefile{toc}{\contentsline {chapter}{\numberline {3}Analisi del progetto}{17}{chapter.3}}
\@writefile{lof}{\addvspace {10\p@ }}
\@writefile{lot}{\addvspace {10\p@ }}
\newlabel{Capitolo analisi del progetto}{{3}{17}{Analisi del progetto}{chapter.3}{}}
\@writefile{toc}{\contentsline {section}{\numberline {3.1}Analisi del problema}{17}{section.3.1}}
\@writefile{lof}{\contentsline {figure}{\numberline {3.1}{\ignorespaces Attacco DDoS}}{18}{figure.3.1}}
\newlabel{Attacco DDoS}{{3.1}{18}{Attacco DDoS}{figure.3.1}{}}
\citation{berezinski2014network}
\@writefile{toc}{\contentsline {subsection}{\numberline {3.1.1}Metodologie per la rilevazione}{19}{subsection.3.1.1}}
\citation{mukkamala2002intrusion}
\citation{kruegel2003bayesian}
\citation{kayacik2007hierarchical}
\@writefile{toc}{\contentsline {subsection}{\numberline {3.1.2}Metodologie per la mitigazione}{21}{subsection.3.1.2}}
\@writefile{toc}{\contentsline {section}{\numberline {3.2}Requisiti del progetto}{22}{section.3.2}}
\@writefile{lof}{\contentsline {figure}{\numberline {3.2}{\ignorespaces Architettura del progetto}}{22}{figure.3.2}}
\newlabel{fig:Architetturabase}{{3.2}{22}{Architettura del progetto}{figure.3.2}{}}
\citation{computing2006architectural}
\@writefile{toc}{\contentsline {chapter}{\numberline {4}Progetto ed implementazione}{25}{chapter.4}}
\@writefile{lof}{\addvspace {10\p@ }}
\@writefile{lot}{\addvspace {10\p@ }}
\newlabel{Capitolo progetto ed implementazione}{{4}{25}{Progetto ed implementazione}{chapter.4}{}}
\@writefile{toc}{\contentsline {section}{\numberline {4.1}Progetto del sistema secondo architettura MAPE-K}{25}{section.4.1}}
\@writefile{lof}{\contentsline {figure}{\numberline {4.1}{\ignorespaces Architettura MAPE-K}}{25}{figure.4.1}}
\newlabel{fig:sistemamapekbase}{{4.1}{25}{Architettura MAPE-K}{figure.4.1}{}}
\@writefile{lof}{\contentsline {figure}{\numberline {4.2}{\ignorespaces Dettagli funzionali del sistema autonomico MAPE-K implementato nell'architettura SDN}}{28}{figure.4.2}}
\newlabel{Dettagli funzionali del sistema autonomico MAPE-K }{{4.2}{28}{Dettagli funzionali del sistema autonomico MAPE-K implementato nell'architettura SDN}{figure.4.2}{}}
\citation{pythondict}
\citation{hashtable}
\citation{de2014using}
\citation{ofsoftswitch}
\@writefile{toc}{\contentsline {section}{\numberline {4.2}Implementazione}{29}{section.4.2}}
\citation{wiki:tokenring}
\@writefile{lof}{\contentsline {figure}{\numberline {4.3}{\ignorespaces Topologia della rete utilizzata}}{30}{figure.4.3}}
\newlabel{Topologia della rete utilizzata}{{4.3}{30}{Topologia della rete utilizzata}{figure.4.3}{}}
\@writefile{toc}{\contentsline {subsection}{\numberline {4.2.1}Esempi di codice}{31}{subsection.4.2.1}}
\@writefile{toc}{\contentsline {chapter}{\numberline {5}Test e validazione}{35}{chapter.5}}
\@writefile{lof}{\addvspace {10\p@ }}
\@writefile{lot}{\addvspace {10\p@ }}
\newlabel{Capitolo test e validazione}{{5}{35}{Test e validazione}{chapter.5}{}}
\@writefile{toc}{\contentsline {section}{\numberline {5.1}Test di studio}{35}{section.5.1}}
\@writefile{toc}{\contentsline {subsection}{\numberline {5.1.1}Caso 1}{35}{subsection.5.1.1}}
\@writefile{toc}{\contentsline {subsection}{\numberline {5.1.2}Caso 2}{35}{subsection.5.1.2}}
\@writefile{toc}{\contentsline {subsection}{\numberline {5.1.3}Caso 3}{36}{subsection.5.1.3}}
\@writefile{toc}{\contentsline {subsection}{\numberline {5.1.4}Caso 4}{36}{subsection.5.1.4}}
\@writefile{toc}{\contentsline {section}{\numberline {5.2}Validazione}{37}{section.5.2}}
\@writefile{toc}{\contentsline {subsection}{\numberline {5.2.1}Caso 1}{37}{subsection.5.2.1}}
\@writefile{lof}{\contentsline {figure}{\numberline {5.1}{\ignorespaces Caso 1}}{37}{figure.5.1}}
\newlabel{Caso1}{{5.1}{37}{Caso 1}{figure.5.1}{}}
\@writefile{toc}{\contentsline {subsection}{\numberline {5.2.2}Caso 2}{38}{subsection.5.2.2}}
\@writefile{lof}{\contentsline {figure}{\numberline {5.2}{\ignorespaces Caso 2}}{38}{figure.5.2}}
\newlabel{Caso2}{{5.2}{38}{Caso 2}{figure.5.2}{}}
\@writefile{toc}{\contentsline {subsection}{\numberline {5.2.3}Caso 3}{39}{subsection.5.2.3}}
\@writefile{lof}{\contentsline {figure}{\numberline {5.3}{\ignorespaces Caso 3}}{39}{figure.5.3}}
\newlabel{Caso3}{{5.3}{39}{Caso 3}{figure.5.3}{}}
\@writefile{toc}{\contentsline {subsection}{\numberline {5.2.4}Caso 4}{40}{subsection.5.2.4}}
\@writefile{lof}{\contentsline {figure}{\numberline {5.4}{\ignorespaces Caso 4}}{40}{figure.5.4}}
\newlabel{Caso4}{{5.4}{40}{Caso 4}{figure.5.4}{}}
\@writefile{toc}{\contentsline {chapter}{\numberline {6}Conclusioni}{41}{chapter.6}}
\@writefile{lof}{\addvspace {10\p@ }}
\@writefile{lot}{\addvspace {10\p@ }}
\newlabel{Capitolo conclusioni}{{6}{41}{Conclusioni}{chapter.6}{}}
\bibstyle{plain_italian}
\bibdata{thud}
\bibcite{attsdn}{1}
\bibcite{ciscoswitch}{2}
\bibcite{hpeswitch}{3}
\bibcite{pythondict}{4}
\bibcite{necswitch}{5}
\bibcite{ofsoftswitch}{6}
\bibcite{telecomsdn}{7}
\bibcite{SEC:SEC1737}{8}
\bibcite{berezinski2014network}{9}
\bibcite{bertino2017botnets}{10}
\bibcite{computing2006architectural}{11}
\bibcite{hashtable}{12}
\bibcite{de2014using}{13}
\bibcite{amazonsdn}{14}
\bibcite{impervareport}{15}
\bibcite{akamaireport}{16}
\bibcite{kayacik2007hierarchical}{17}
\bibcite{kruegel2003bayesian}{18}
\bibcite{mukkamala2002intrusion}{19}
\bibcite{openflowspecifications}{20}
\bibcite{tijareinternational}{21}
\bibcite{DBLP:journals/corr/AdrichemIK16}{22}
\bibcite{wiki:fpga}{23}
\bibcite{wiki:asic}{24}
\bibcite{wiki:nfv}{25}
\bibcite{wiki:tokenring}{26}
