\select@language {italian}
\select@language {italian}
\addvspace {10\p@ }
\addvspace {10\p@ }
\contentsline {table}{\numberline {2.1}{Switch fisici}}{8}{table.2.1}
\addvspace {10\p@ }
\addvspace {10\p@ }
\addvspace {10\p@ }
\addvspace {10\p@ }
